"/wiki/0E0P_metacell"
"/wiki/1_beacon"
"/wiki/1-2-3"
"/wiki/1-2-3-4"
"/wiki/10-engine_Cordership"
"/wiki/101"
"/wiki/104P9"
"/wiki/106P135"
"/wiki/110P62"
"/wiki/112P15"
"/wiki/114P6H1V0"
"/wiki/117P18"
"/wiki/117P9H3V0"
"/wiki/119P4H1V0"
"/wiki/123P27.1"
"/wiki/124P21"
"/wiki/128P10.2"
"/wiki/13-engine_Cordership"
"/wiki/132P7"
"/wiki/134P25"
"/wiki/134P39.1"
"/wiki/135-degree_MWSS-to-G"
"/wiki/144P24"
"/wiki/145P20"
"/wiki/14P2.1"
"/wiki/14P2.3"
"/wiki/14P2.4"
"/wiki/15-bent-paperclip"
"/wiki/160P10H2V0"
"/wiki/168P22.1"
"/wiki/17c/45_reaction"
"/wiki/186P24"
"/wiki/186P7H2V0"
"/wiki/1%C3%97N_quadratic_growth"
"/wiki/2_fumaroles"
"/wiki/2-engine_Cordership"
"/wiki/2.2.4"
"/wiki/2.2.5"
"/wiki/2.2.6"
"/wiki/2.3.3"
"/wiki/2.3.4"
"/wiki/2.3.5"
"/wiki/2.3.6"
"/wiki/209P8"
"/wiki/20P2"
"/wiki/20P4"
"/wiki/21P2"
"/wiki/22P2"
"/wiki/22P36"
"/wiki/22P4.3_on_56P27"
"/wiki/230P8"
"/wiki/23334M"
"/wiki/233P3H1V0"
"/wiki/23P2"
"/wiki/24-cell_quadratic_growth"
"/wiki/24827M"
"/wiki/24P10"
"/wiki/24P2"
"/wiki/25-cell_quadratic_growth"
"/wiki/258P3"
"/wiki/258P3_on_Achim%27s_p11"
"/wiki/25P3H1V0.1"
"/wiki/25P3H1V0.2"
"/wiki/26-cell_quadratic_growth"
"/wiki/26P2"
"/wiki/274P6H1V0"
"/wiki/27P4H1V1"
"/wiki/28P7.1"
"/wiki/28P7.2"
"/wiki/28P7.3"
"/wiki/295P5H1V1"
"/wiki/29P9"
"/wiki/3-engine_Cordership"
"/wiki/3-engine_Cordership_gun"
"/wiki/3-engine_Cordership_rake"
"/wiki/30P4H2V0.4"
"/wiki/30P5H2V0"
"/wiki/30P6.1"
"/wiki/31.4"
"/wiki/31c/240_Herschel-pair_climber"
"/wiki/31P8H4V0"
"/wiki/32829M"
"/wiki/339P7H1V0"
"/wiki/33P3.1"
"/wiki/34P14_shuttle"
"/wiki/35201M"
"/wiki/35P12.1"
"/wiki/37P10.1"
"/wiki/37P4H1V0"
"/wiki/37P7.1"
"/wiki/38P11.1"
"/wiki/38P7.2"
"/wiki/3c/10_pi_wave"
"/wiki/3c/14_pi_wave"
"/wiki/3c/7_wave"
"/wiki/4-engine_Cordership"
"/wiki/4-in-a-row_Cordership"
"/wiki/40514M"
"/wiki/409P6H1V0"
"/wiki/41P7.2"
"/wiki/42100M"
"/wiki/42P10.3"
"/wiki/44P10"
"/wiki/44P12.3"
"/wiki/44P14"
"/wiki/44P5H2V0"
"/wiki/44P7_on_Beluchenko%27s_p13"
"/wiki/44P7.2"
"/wiki/45-degree_MWSS-to-G"
"/wiki/46P10"
"/wiki/46P4H1V0"
"/wiki/47575M"
"/wiki/487-tick_reflector"
"/wiki/48P22.1"
"/wiki/48P9_on_rattlesnake"
"/wiki/49768M"
"/wiki/49P88"
"/wiki/5-engine_Cordership"
"/wiki/50093M"
"/wiki/50P35"
"/wiki/50P92.1"
"/wiki/51P20H10V0"
"/wiki/52513M"
"/wiki/52P84"
"/wiki/53P13"
"/wiki/54P17.1"
"/wiki/54P3H1V0"
"/wiki/55P10"
"/wiki/55P9H3V0"
"/wiki/56P27"
"/wiki/56P6H1V0"
"/wiki/58P5H1V1"
"/wiki/5blink"
"/wiki/6_bits"
"/wiki/6-engine_Cordership"
"/wiki/6-engine_Cordership_gun"
"/wiki/6-in-a-row_Cordership"
"/wiki/600P6H1V0"
"/wiki/60P312"
"/wiki/60P3H1V0.3"
"/wiki/60P5H2V0"
"/wiki/62P3.1"
"/wiki/64P2H1V0"
"/wiki/65P48"
"/wiki/66P13"
"/wiki/67P5H1V1"
"/wiki/68P16"
"/wiki/68P32.1"
"/wiki/68P9"
"/wiki/69P48"
"/wiki/7-engine_Cordership"
"/wiki/7-in-a-row_Cordership"
"/wiki/70P2H1V0.1"
"/wiki/70P5H2V0"
"/wiki/72P68"
"/wiki/72P6H2V0"
"/wiki/7468M"
"/wiki/74P85"
"/wiki/74P8H2V0"
"/wiki/754P7"
"/wiki/77P4H1V0.1"
"/wiki/77P6H1V1"
"/wiki/77P77"
"/wiki/78P70"
"/wiki/7%C3%979_eater"
"/wiki/8-bit_programmable_computer"
"/wiki/8-engine_Cordership"
"/wiki/80P6"
"/wiki/84P3H1V0.1"
"/wiki/84P87"
"/wiki/86P5H1V1"
"/wiki/87P26"
"/wiki/90P51"
"/wiki/94P27.1"
"/wiki/98P25"
"/wiki/A_for_all"
"/wiki/Achim%27s_other_p16"
"/wiki/Achim%27s_p11"
"/wiki/Achim%27s_p144"
"/wiki/Achim%27s_p16"
"/wiki/Achim%27s_p4"
"/wiki/Achim%27s_p8"
"/wiki/Acorn"
"/wiki/Aircraft_carrier"
"/wiki/Airforce"
"/wiki/AK-47_reaction"
"/wiki/AK-94"
"/wiki/Almost_knightship"
"/wiki/Almosymmetric"
"/wiki/Amphisbaena"
"/wiki/Angel"
"/wiki/Ants"
"/wiki/Anura"
"/wiki/Anvil"
"/wiki/Aries_betwixt_two_blocks"
"/wiki/Asymmetric_amphisbaena"
"/wiki/AVerage"
"/wiki/B-52_bomber"
"/wiki/B-heptomino"
"/wiki/B29"
"/wiki/B60"
"/wiki/Babbling_brook_1"
"/wiki/Backrake_1"
"/wiki/Backrake_2"
"/wiki/Backrake_3"
"/wiki/Baker%27s_dozen"
"/wiki/Bakery"
"/wiki/Banana_spark"
"/wiki/Bandersnatch"
"/wiki/Barbershop"
"/wiki/Barge"
"/wiki/Barge_(spaceship)"
"/wiki/Barge_2_(spaceship)"
"/wiki/Barge_siamese_loaf"
"/wiki/Barge_with_long_tail"
"/wiki/Barge_with_very_long_tail"
"/wiki/Beacon"
"/wiki/Beacon_on_38P11.1"
"/wiki/Beacon_on_cover"
"/wiki/Bee_hat"
"/wiki/Beehive"
"/wiki/Beehive_at_beehive"
"/wiki/Beehive_at_claw"
"/wiki/Beehive_at_loaf"
"/wiki/Beehive_fuse"
"/wiki/Beehive_on_cap"
"/wiki/Beehive_on_dock"
"/wiki/Beehive_on_griddle"
"/wiki/Beehive_on_long_hook_eating_tub"
"/wiki/Beehive_on_table"
"/wiki/Beehive_push_catalyst"
"/wiki/Beehive_stopper"
"/wiki/Beehive_test_tube_baby"
"/wiki/Beehive_with_bend_tail"
"/wiki/Beehive_with_nine"
"/wiki/Beehive_with_tail"
"/wiki/Beethoven"
"/wiki/Beluchenko%27s_other_p37"
"/wiki/Beluchenko%27s_p13"
"/wiki/Beluchenko%27s_p37"
"/wiki/Beluchenko%27s_p40"
"/wiki/Beluchenko%27s_p51"
"/wiki/Bent_keys"
"/wiki/BF20H"
"/wiki/BFx59H_injector"
"/wiki/Bi-block"
"/wiki/Bi-block_fuse"
"/wiki/Bi-boat"
"/wiki/Bi-cap"
"/wiki/Bi-gun"
"/wiki/Bi-loaf_2"
"/wiki/Bi-pond"
"/wiki/Big_A"
"/wiki/Big_glider"
"/wiki/Big_S"
"/wiki/Bipole"
"/wiki/Bipole_tie_eater_head"
"/wiki/Bipole_tie_eater_tail"
"/wiki/Bipole_tie_pseudo-barberpole"
"/wiki/Bipole_tie_ship"
"/wiki/Bipole_tie_snake"
"/wiki/Birthday_puffer"
"/wiki/Bistable_switch"
"/wiki/Biting_off_more_than_they_can_chew"
"/wiki/Blinker"
"/wiki/Blinker_fuse"
"/wiki/Blinker_puffer_1"
"/wiki/Blinker_puffer_2"
"/wiki/Blinker_ship_1"
"/wiki/Blinkers_bit_pole"
"/wiki/Block"
"/wiki/Block_and_glider"
"/wiki/Block_on_boat"
"/wiki/Block_on_cap"
"/wiki/Block_on_cover"
"/wiki/Block_on_dock"
"/wiki/Block_on_griddle"
"/wiki/Block_on_table"
"/wiki/Block-laying_switch_engine"
"/wiki/Blockade"
"/wiki/Blocked_p4_t-nose"
"/wiki/Blocked_p4_t-nose_hybrid"
"/wiki/Blocked_p4-1"
"/wiki/Blocked_p4-2"
"/wiki/Blocked_p4-3"
"/wiki/Blocked_p4-4"
"/wiki/Blocked_p4-5"
"/wiki/Blocker"
"/wiki/Blocks_on_griddle"
"/wiki/Blockstacker"
"/wiki/Blom"
"/wiki/Blonk-tie"
"/wiki/Blonker"
"/wiki/Blonker_on_Rich%27s_p16"
"/wiki/BLx19R"
"/wiki/BNE14T30"
"/wiki/Boat"
"/wiki/Boat_on_griddle"
"/wiki/Boat_test_tube_baby"
"/wiki/Boat_tie_bipole"
"/wiki/Boat_tie_eater_head"
"/wiki/Boat_tie_eater_tail"
"/wiki/Boat_tie_long_boat"
"/wiki/Boat_tie_long_snake"
"/wiki/Boat_tie_quadpole"
"/wiki/Boat_tie_ship"
"/wiki/Boat_tie_snake"
"/wiki/Boat_tie_spark_coil"
"/wiki/Boat_tie_tripole"
"/wiki/Boat_with_cis-tail"
"/wiki/Boat_with_hooked_tail"
"/wiki/Boat_with_long_tail"
"/wiki/Boat_with_long%5E3_tail"
"/wiki/Boat_with_very_long_tail"
"/wiki/Boat-bit"
"/wiki/Boat-tie"
"/wiki/Boatstretcher_1"
"/wiki/Boojum_reflector"
"/wiki/Bookend"
"/wiki/Bookend_siamese_table"
"/wiki/Bookends"
"/wiki/Bookends_siamese_tables"
"/wiki/Boring_p24"
"/wiki/Boss"
"/wiki/Bottle"
"/wiki/Brain"
"/wiki/Breeder_1"
"/wiki/Bricklayer"
"/wiki/Broken_elevener"
"/wiki/Broken_lines"
"/wiki/Broken_snake"
"/wiki/Bronco"
"/wiki/BRx46B"
"/wiki/BTS"
"/wiki/Buckaroo"
"/wiki/Buckingham%27s_p13"
"/wiki/Bullet_heptomino"
"/wiki/Bun"
"/wiki/Bunnies"
"/wiki/Burloaferimeter"
"/wiki/Butterfly"
"/wiki/Bx106"
"/wiki/Bx125"
"/wiki/Bx222"
"/wiki/By_flops"
"/wiki/C-heptomino"
"/wiki/C/12_R-pentomino_crawler"
"/wiki/C/4_wave"
"/wiki/C/5_diagonal_rake"
"/wiki/Caber_tosser_1"
"/wiki/Callahan_G-to-H"
"/wiki/Camelship"
"/wiki/Canada_goose"
"/wiki/Canada_Grey"
"/wiki/Candelabra"
"/wiki/Candlefrobra"
"/wiki/Canoe"
"/wiki/Canoe_siamese_snake"
"/wiki/Cap"
"/wiki/Cap_and_dock"
"/wiki/Cap_and_table"
"/wiki/Carnival_shuttle"
"/wiki/Carrier_bridge_carrier"
"/wiki/Carrier_bridge_snake"
"/wiki/Carrier_bridge_table"
"/wiki/Carrier_siamese_canoe"
"/wiki/Carrier_siamese_carrier"
"/wiki/Carrier_siamese_dock"
"/wiki/Carrier_siamese_eater_head"
"/wiki/Carrier_siamese_eater_tail"
"/wiki/Carrier_siamese_hook-with-tail_hook"
"/wiki/Carrier_siamese_hook-with-tail_tail"
"/wiki/Carrier_siamese_long_snake"
"/wiki/Carrier_siamese_shillelagh"
"/wiki/Carrier_siamese_tub_with_tail"
"/wiki/Carrier_siamese_very_long_snake"
"/wiki/Carrier_tie_bipole"
"/wiki/Carrier_tie_boat"
"/wiki/Carrier_tie_ship"
"/wiki/Carrier_with_feather"
"/wiki/Catacryst"
"/wiki/Caterer"
"/wiki/Caterer_on_28P7.3"
"/wiki/Caterer_on_42P7.1"
"/wiki/Caterer_on_44P7.2"
"/wiki/Caterer_on_68P32"
"/wiki/Caterer_on_Beluchenko%27s_p13"
"/wiki/Caterer_on_figure_eight"
"/wiki/Caterer_on_Jason%27s_p22"
"/wiki/Caterer_on_Merzenich%27s_p31"
"/wiki/Caterer_on_rattlesnake"
"/wiki/Caterloopillar"
"/wiki/Caterpillar"
"/wiki/Cauldron"
"/wiki/CC_semi-cenark"
"/wiki/CC_semi-Snark"
"/wiki/Centinal"
"/wiki/Centipede"
"/wiki/Century"
"/wiki/Century_eater"
"/wiki/Cha_cha"
"/wiki/Champagne_glass"
"/wiki/Chemist"
"/wiki/Chicken_wire"
"/wiki/Chopin"
"/wiki/Circle_of_fire"
"/wiki/Cis-barge_with_nine"
"/wiki/Cis-barge_with_tail"
"/wiki/Cis-beacon_down_on_long_hook"
"/wiki/Cis-beacon_on_anvil"
"/wiki/Cis-beacon_on_cap"
"/wiki/Cis-beacon_on_dock"
"/wiki/Cis-beacon_on_table"
"/wiki/Cis-beacon_up_on_long_hook"
"/wiki/Cis-bipole_on_table"
"/wiki/Cis-block_on_long_hook"
"/wiki/Cis-boat_amphisbaena"
"/wiki/Cis-boat_and_cap"
"/wiki/Cis-boat_line_tub"
"/wiki/Cis-boat_on_dock"
"/wiki/Cis-boat_on_long_hook_eating_tub"
"/wiki/Cis-boat_on_table"
"/wiki/Cis-boat_with_nine"
"/wiki/Cis-boat_with_tail"
"/wiki/Cis-carrier_down_on_table"
"/wiki/Cis-carrier_tie_snake"
"/wiki/Cis-carrier_up_on_table"
"/wiki/Cis-carrier-tie"
"/wiki/Cis-fuse_with_two_tails"
"/wiki/Cis-hook_and_R-bee"
"/wiki/Cis-hook_with_tail"
"/wiki/Cis-loaf_with_tail"
"/wiki/Cis-long_barge_with_tail"
"/wiki/Cis-long_boat_with_tail"
"/wiki/Cis-mango_with_tail"
"/wiki/Cis-mirrored_R-bee"
"/wiki/Cis-mirrored_worm"
"/wiki/Cis-mirrored_worm_siamese_cis-mirrored_worm"
"/wiki/Cis-R-bee_and_R-loaf"
"/wiki/Cis-rotated_hook"
"/wiki/Cis-rotated_R-bee"
"/wiki/Cis-shillelagh"
"/wiki/Cis-ship_on_table"
"/wiki/Cis-snake-tie"
"/wiki/Cis-tripole_on_table"
"/wiki/Claw"
"/wiki/Claw_siamese_tub_with_cape"
"/wiki/Claw_test_tube_baby"
"/wiki/Claw_with_boat_with_tail"
"/wiki/Claw_with_tail"
"/wiki/Claw_with_tub_with_tail"
"/wiki/Clips"
"/wiki/Clock"
"/wiki/Clock_2"
"/wiki/Cloverleaf_interchange"
"/wiki/Coe_ship"
"/wiki/Coe%27s_p8"
"/wiki/Collatz_5n%2B1_simulator"
"/wiki/Conduit_1"
"/wiki/Confused_eaters"
"/wiki/Coolout_Conjecture"
"/wiki/Copperhead"
"/wiki/Cord_puller"
"/wiki/Cottonmouth"
"/wiki/Cousins"
"/wiki/Cover"
"/wiki/CP_semi-cenark"
"/wiki/CP_semi-Snark"
"/wiki/Crab"
"/wiki/Crane"
"/wiki/Cross"
"/wiki/Cross_2"
"/wiki/Crowd"
"/wiki/Crown"
"/wiki/Crystallization_and_decay_oscillator"
"/wiki/Cthulhu"
"/wiki/Cuphook"
"/wiki/Cyclic"
"/wiki/Dart"
"/wiki/David_Hilbert"
"/wiki/Dead_spark_coil"
"/wiki/Decapole"
"/wiki/Deep_cell"
"/wiki/Demonoid"
"/wiki/Demultiplexer"
"/wiki/Diagonal_on-off"
"/wiki/Diamond_ring"
"/wiki/Die_hard"
"/wiki/Dinner_table"
"/wiki/Diuresis"
"/wiki/Dock"
"/wiki/Dock_and_long_hook"
"/wiki/Doo-dah"
"/wiki/Double_caterer"
"/wiki/Double_claw"
"/wiki/Double_ewe"
"/wiki/Double_X"
"/wiki/Dove"
"/wiki/Down_snake_on_table"
"/wiki/Dragon"
"/wiki/Dueling_banjos"
"/wiki/Duodecapole"
"/wiki/Duoplet"
"/wiki/E-heptomino"
"/wiki/Eater_1"
"/wiki/Eater_2"
"/wiki/Eater_3"
"/wiki/Eater_4"
"/wiki/Eater_bridge_eater"
"/wiki/Eater_head_siamese_eater_head"
"/wiki/Eater_head_siamese_eater_tail"
"/wiki/Eater_head_siamese_long_snake"
"/wiki/Eater_head_siamese_snake"
"/wiki/Eater_plug"
"/wiki/Eater_tail_siamese_eater_tail"
"/wiki/Eater_tail_siamese_long_snake"
"/wiki/Eater_tail_siamese_snake"
"/wiki/Eater_with_cape"
"/wiki/Eater_with_head_feather"
"/wiki/Eater_with_tail_feather"
"/wiki/Eater/block_frob"
"/wiki/Ecologist"
"/wiki/Ed"
"/wiki/Edge-repair_spaceship_1"
"/wiki/Edge-repair_spaceship_2"
"/wiki/Edna"
"/wiki/Egyptian_walk"
"/wiki/Electric_fence"
"/wiki/Eleven_loop"
"/wiki/Elevener"
"/wiki/Elkies%27_p5"
"/wiki/Ellison_p4_HW_emulator"
"/wiki/Ellison_p4_HW_emulator_hybrid"
"/wiki/En_retard"
"/wiki/Enterprise"
"/wiki/Eureka"
"/wiki/Eve"
"/wiki/Extremely_impressive"
"/wiki/F-heptomino"
"/wiki/F116"
"/wiki/F117"
"/wiki/F166"
"/wiki/F171"
"/wiki/Fast_forward_force_field"
"/wiki/Feather"
"/wiki/Fermat_prime_calculator"
"/wiki/Figure_eight"
"/wiki/Figure_eight_on_22P36"
"/wiki/Figure_eight_on_Beluchenko%27s_p13"
"/wiki/Figure_eight_on_centinal"
"/wiki/Figure_eight_on_Jason%27s_p22"
"/wiki/Figure_eight_on_pentadecathlon"
"/wiki/Figure_eight_on_rattlesnake"
"/wiki/Fire-spitting"
"/wiki/Fireship"
"/wiki/Fleet"
"/wiki/Fly"
"/wiki/Flying_wing"
"/wiki/Fore_and_back"
"/wiki/Fountain"
"/wiki/Four_boats"
"/wiki/Four_eaters"
"/wiki/Four_eaters_hassling_four_bookends"
"/wiki/Four_eaters_hassling_lumps_of_muck"
"/wiki/Four_molds_hassling_eight_blocks"
"/wiki/Four_skewed_blocks"
"/wiki/Fourteener"
"/wiki/Fox"
"/wiki/Fred"
"/wiki/French_kiss"
"/wiki/Frog_II"
"/wiki/Frothing_puffer"
"/wiki/Fully_universal_Turing_machine"
"/wiki/Fumarole"
"/wiki/Fumarole_on_34P14_shuttle"
"/wiki/Fumarole_on_Achim%27s_p11"
"/wiki/Fumarole_on_Beluchenko%27s_p13"
"/wiki/Fumarole_on_p18_bi-block_hassler"
"/wiki/Fumarole_on_Rich%27s_p16"
"/wiki/Fumarole_on_Rob%27s_p16"
"/wiki/Fuse_with_tail_and_integral"
"/wiki/Fuse_with_tail_and_long_tail"
"/wiki/Fuse_with_tail_and_very_long_tail"
"/wiki/Fuse_with_two_long_tails"
"/wiki/Fx119"
"/wiki/Fx119_inserter"
"/wiki/Fx153"
"/wiki/Fx158"
"/wiki/Fx176"
"/wiki/Fx77"
"/wiki/G-to-LWSS"
"/wiki/G4_receiver"
"/wiki/Gabriel%27s_p138"
"/wiki/Gemini"
"/wiki/Germ"
"/wiki/Ghost_Herschel"
"/wiki/Glasses"
"/wiki/Glider"
"/wiki/Glider_emulator"
"/wiki/Glider_loop"
"/wiki/Glider_stopper"
"/wiki/Glider_to_2_blocks"
"/wiki/Glider_to_2-engine_Cordership"
"/wiki/Glider_to_block"
"/wiki/Glider_train"
"/wiki/Glider-producing_switch_engine"
"/wiki/Gliders_by_the_dozen"
"/wiki/Gocow"
"/wiki/Gosper_glider_gun"
"/wiki/Gotts_dots"
"/wiki/Gourmet"
"/wiki/Grandfather_problem"
"/wiki/Gray_counter"
"/wiki/Great_on-off"
"/wiki/Griddle_and_dock"
"/wiki/Griddle_and_table"
"/wiki/Grin"
"/wiki/Grin_reagent"
"/wiki/Gull_with_tub"
"/wiki/Gunstar"
"/wiki/Gunstar_2"
"/wiki/H-to-MWSS"
"/wiki/Hacksaw"
"/wiki/Half-baked_knightship"
"/wiki/Half-bakery"
"/wiki/Halfmax"
"/wiki/Hammerhead"
"/wiki/Harbor"
"/wiki/Hat"
"/wiki/Hat_siamese_vase"
"/wiki/HBK_gun"
"/wiki/Heart"
"/wiki/Heavyweight_emulator"
"/wiki/Heavyweight_spaceship"
"/wiki/Heavyweight_volcano"
"/wiki/Hebdarole"
"/wiki/Hectic"
"/wiki/Heptapole"
"/wiki/Herschel"
"/wiki/Herschel_grandparent"
"/wiki/Herschel_great-grandparent"
"/wiki/Herschel_parent"
"/wiki/Herschel_receiver"
"/wiki/Herschel_stopper"
"/wiki/Herschel_transmitter"
"/wiki/Hertz_oscillator"
"/wiki/Hexagonal_key"
"/wiki/Hexapole"
"/wiki/HF95P"
"/wiki/HFx58B"
"/wiki/Hive_test_tube_baby"
"/wiki/Hivenudger"
"/wiki/Hivenudger_2"
"/wiki/HL75P"
"/wiki/Homer"
"/wiki/Honey_farm"
"/wiki/Honey_thieves"
"/wiki/Honey_thieves_with_test_tube_baby"
"/wiki/Honeybarge"
"/wiki/Honeybit"
"/wiki/Honeycomb"
"/wiki/Hook_test_tube_baby"
"/wiki/Hook_with_nine"
"/wiki/Hook_with_tail"
"/wiki/Hook_with_tail_with_cape"
"/wiki/Hook_with_two_tails"
"/wiki/Hook-with-tail_hook_siamese_snake"
"/wiki/Hook-with-tail_tail_siamese_snake"
"/wiki/Hooks"
"/wiki/Houndstooth_agar"
"/wiki/House"
"/wiki/House_on_house_siamese_table-on-table_weld_hat-siamese-hat"
"/wiki/Hungry_hat"
"/wiki/Hustler"
"/wiki/Hustler_II"
"/wiki/HWSS_on_HWSS_1"
"/wiki/Hydra"
"/wiki/Infinite_glider_hotel"
"/wiki/Infinite_LWSS_hotel"
"/wiki/Inflected_clips"
"/wiki/Inflected_long_snake"
"/wiki/Inflexion"
"/wiki/Integral_sign"
"/wiki/Integral_with_cis-hook"
"/wiki/Integral_with_hook"
"/wiki/Integral_with_hook_and_tail"
"/wiki/Integral_with_long_hook"
"/wiki/Integral_with_long_hook_and_tub"
"/wiki/Integral_with_tub"
"/wiki/Integral_with_tub_and_hook"
"/wiki/Integral_with_tub_and_tail"
"/wiki/Integral_with_two_tubs"
"/wiki/Integral_with_very_long_hook"
"/wiki/Interchange"
"/wiki/Inverted_double_claw"
"/wiki/Iwona"
"/wiki/Jack"
"/wiki/Jagged_lines"
"/wiki/Jam"
"/wiki/Jason%27s_p11"
"/wiki/Jason%27s_p156"
"/wiki/Jason%27s_p22"
"/wiki/Jason%27s_p33"
"/wiki/Jason%27s_p36"
"/wiki/Jason%27s_p6"
"/wiki/Jaws"
"/wiki/Jaydot"
"/wiki/Jolson"
"/wiki/Jormungant%27s_G-to-H"
"/wiki/Justyna"
"/wiki/Karel%27s_p15"
"/wiki/Karel%27s_p177"
"/wiki/Karel%27s_p28"
"/wiki/Killer_candlefrobras"
"/wiki/Killer_toads"
"/wiki/Knightwave"
"/wiki/Kok%27s_galaxy"
"/wiki/L112"
"/wiki/L122"
"/wiki/L156"
"/wiki/Lake_2"
"/wiki/Land_of_lakes"
"/wiki/Laputa"
"/wiki/Lei"
"/wiki/Lidka"
"/wiki/Light_bulb"
"/wiki/Light_speed_oscillator_1"
"/wiki/Light_speed_oscillator_2"
"/wiki/Light_speed_oscillator_3"
"/wiki/Lightspeed_crawler"
"/wiki/Lightweight_emulator"
"/wiki/Lightweight_spaceship"
"/wiki/Line_crosser"
"/wiki/Linear_propagator"
"/wiki/Loading_dock"
"/wiki/Loaf"
"/wiki/Loaf_back_tie_loaf"
"/wiki/Loaf_siamese_loaf"
"/wiki/Loaf_test_tube_baby"
"/wiki/Loaf_tie_eater-with-tail"
"/wiki/Loafer"
"/wiki/Loaflipflop"
"/wiki/Lobster_(spaceship)"
"/wiki/Log(t)%5E2_growth"
"/wiki/Long_barge"
"/wiki/Long_boat"
"/wiki/Long_boat_tie_ship"
"/wiki/Long_boat_with_long_tail"
"/wiki/Long_canoe"
"/wiki/Long_cis-hook_with_tail"
"/wiki/Long_cis-shillelagh"
"/wiki/Long_claw_with_tail"
"/wiki/Long_hook"
"/wiki/Long_hook_with_tail"
"/wiki/Long_integral"
"/wiki/Long_integral_with_boat"
"/wiki/Long_melusine"
"/wiki/Long_prodigal"
"/wiki/Long_shillelagh"
"/wiki/Long_ship"
"/wiki/Long_snake"
"/wiki/Long_snake_siamese_long_snake"
"/wiki/Long_tub-claw_with_tail"
"/wiki/Longhorn"
"/wiki/Long%5E3_barge"
"/wiki/Long%5E3_boat"
"/wiki/Long%5E3_canoe"
"/wiki/Long%5E3_hook_with_tail"
"/wiki/Long%5E3_integral"
"/wiki/Long%5E3_shillelagh"
"/wiki/Long%5E3_ship"
"/wiki/Long%5E3_snake"
"/wiki/Long%5E4_canoe"
"/wiki/Long%5E4_hook_with_tail"
"/wiki/Long%5E4_shillelagh"
"/wiki/Long%5E4_snake"
"/wiki/Long%5E5_snake"
"/wiki/Long%5E6_snake"
"/wiki/Loop"
"/wiki/LWSS_on_HWSS_1"
"/wiki/LWSS_on_MWSS_1"
"/wiki/Lx200"
"/wiki/Lx65"
"/wiki/Lx73"
"/wiki/Lx84"
"/wiki/Mangled_1_beacon"
"/wiki/Mango"
"/wiki/Mango_test_tube_baby"
"/wiki/Mango_with_block_on_dock"
"/wiki/Mathematician"
"/wiki/Max"
"/wiki/Maximum_volatility_gun"
"/wiki/Mazing"
"/wiki/Merzenich%27s_p11"
"/wiki/Merzenich%27s_p18"
"/wiki/Merzenich%27s_p31"
"/wiki/Merzenich%27s_p64"
"/wiki/Metacatacryst"
"/wiki/Metamorphosis_II"
"/wiki/Mickey_Mouse"
"/wiki/Middleweight_emulator"
"/wiki/Middleweight_spaceship"
"/wiki/Middleweight_volcano"
"/wiki/Mini_pressure_cooker"
"/wiki/Mirage"
"/wiki/Mirrored_dock"
"/wiki/Model_D_Heisenburp"
"/wiki/Mold"
"/wiki/Mold_on_34P14_shuttle"
"/wiki/Mold_on_41P7.2"
"/wiki/Mold_on_fumarole"
"/wiki/Mold_on_Jason%27s_p22"
"/wiki/Mold_on_Jason%27s_p33"
"/wiki/Mold_on_long_hook_eating_tub"
"/wiki/Mold_on_Merzenich%27s_p31"
"/wiki/Mold_on_pentadecathlon"
"/wiki/Mold_on_rattlesnake"
"/wiki/Monoclaw_test_tube_baby"
"/wiki/Monogram"
"/wiki/Montana"
"/wiki/Moose_antlers"
"/wiki/Mosquito_1"
"/wiki/Mosquito_2"
"/wiki/Mosquito_3"
"/wiki/Mosquito_4"
"/wiki/Mosquito_5"
"/wiki/Moving_sawtooth"
"/wiki/Multum_in_parvo"
"/wiki/Muttering_moat_1"
"/wiki/MWSS_on_HWSS_1"
"/wiki/MWSS_on_MWSS_1"
"/wiki/Negentropy"
"/wiki/New_five"
"/wiki/New_gun_1"
"/wiki/New_gun_2"
"/wiki/Newshuttle"
"/wiki/Nihonium"
"/wiki/Nine"
"/wiki/Noah%27s_ark"
"/wiki/Non-monotonic_spaceship_1"
"/wiki/Nonapole"
"/wiki/O_quad-loaf"
"/wiki/O(sqrt(log(t)))"
"/wiki/Obo!_spark"
"/wiki/Ocellus"
"/wiki/Octagon_2"
"/wiki/Octagon_4"
"/wiki/Octapole"
"/wiki/Octomino_II"
"/wiki/Odd_keys"
"/wiki/Odd_test_tube_baby"
"/wiki/Omnibus"
"/wiki/Omnibus_with_tubs"
"/wiki/One_per_generation"
"/wiki/Onion_rings"
"/wiki/Orion"
"/wiki/Orion_2"
"/wiki/Ortho-loaf_on_table"
"/wiki/Orthogonal_loopship"
"/wiki/Orthogonal_on-off"
"/wiki/Orthogonoid"
"/wiki/OTCA_metapixel"
"/wiki/Overweight_emulator"
"/wiki/Overweight_spaceship"
"/wiki/P1_megacell"
"/wiki/P10_traffic_light_hassler"
"/wiki/P11_bumper"
"/wiki/P11_double-length_signal_injector"
"/wiki/P11_pinwheel"
"/wiki/P110_traffic_jam"
"/wiki/P120-based_PRNG"
"/wiki/P124_lumps_of_muck_hassler"
"/wiki/P13-assisted_period-52_glider_gun"
"/wiki/P130_shuttle"
"/wiki/P15_bouncer"
"/wiki/P15_bumper"
"/wiki/P15_pre-pulsar_spaceship"
"/wiki/P156_Hans_Leo_hassler"
"/wiki/P160_dart_gun"
"/wiki/P18_bi-block_hassler"
"/wiki/P18_honey_farm_hassler"
"/wiki/P196_pi-heptomino_hassler"
"/wiki/P200_traffic_jam"
"/wiki/P21_B-heptomino_hassler"
"/wiki/P21_honey_farm_hassler"
"/wiki/P22_lumps_of_muck_hassler"
"/wiki/P24_shuttle"
"/wiki/P25_pre-pulsar_shuttle"
"/wiki/P26_glider_shuttle"
"/wiki/P26_pre-pulsar_shuttle"
"/wiki/P28_pre-pulsar_shuttle"
"/wiki/P29_pentadecathlon_hassler"
"/wiki/P29_pre-pulsar_shuttle"
"/wiki/P29_traffic-farm_hassler"
"/wiki/P3_bumper"
"/wiki/P31_glider_shuttle"
"/wiki/P32_blinker_hassler"
"/wiki/P32_blinker_hassler_2"
"/wiki/P32_honey_farm_hassler"
"/wiki/P35_beehive_hassler"
"/wiki/P35_honey_farm_hassler"
"/wiki/P36_shuttle"
"/wiki/P36_toad_hassler"
"/wiki/P4_bouncer"
"/wiki/P4_bumper"
"/wiki/P4_CC_cenark"
"/wiki/P4_CP_cenark"
"/wiki/P4_quinti-Snark"
"/wiki/P4_reflector"
"/wiki/P40_B-heptomino_shuttle"
"/wiki/P416_60P5H2V0_gun"
"/wiki/P42_glider_shuttle"
"/wiki/P43_Snark_loop"
"/wiki/P44_pi-heptomino_hassler"
"/wiki/P44_traffic_light_hassler"
"/wiki/P448_dart_gun"
"/wiki/P46_gliderless_LWSS_gun"
"/wiki/P46_gliderless_MWSS_gun"
"/wiki/P46-based_PRNG"
"/wiki/P47_pre-pulsar_shuttle"
"/wiki/P48_pi-heptomino_hassler"
"/wiki/P48_toad_hassler"
"/wiki/P486_R-pentomino_hassler"
"/wiki/P49_bumper_loop"
"/wiki/P49_glider_shuttle"
"/wiki/P49_skewed_pulsar_hassler"
"/wiki/P5_bouncer"
"/wiki/P5_bumper"
"/wiki/P5_pipsquirter"
"/wiki/P5_quinti-Snark"
"/wiki/P50_glider_shuttle"
"/wiki/P50_traffic_jam"
"/wiki/P52_R-pentomino_hassler"
"/wiki/P54_shuttle"
"/wiki/P55_pre-pulsar_hassler"
"/wiki/P56_B-heptomino_shuttle"
"/wiki/P57_bumper_loop"
"/wiki/P57_Herschel_loop_1"
"/wiki/P576_R-pentomino_hassler"
"/wiki/P5760_unit_Life_cell"
"/wiki/P58_pre-pulsar_shuttle"
"/wiki/P58_toadsucker"
"/wiki/P59_Herschel_loop_1"
"/wiki/P59_Herschel_loop_2"
"/wiki/P6_bouncer"
"/wiki/P6_bumper"
"/wiki/P6_pipsquirter"
"/wiki/P6_shuttle"
"/wiki/P6_thumb"
"/wiki/P6_thumb_on_Beluchenko%27s_p13"
"/wiki/P60_B-heptomino_hassler"
"/wiki/P60_glider_shuttle"
"/wiki/P60_traffic_light_hassler"
"/wiki/P61_Herschel_loop_1"
"/wiki/P61_Herschel_loop_2"
"/wiki/P64_thunderbird_hassler"
"/wiki/P690_60P5H2V0_gun"
"/wiki/P7_bouncer"
"/wiki/P7_bumper"
"/wiki/P7_pipsquirter"
"/wiki/P72_quasi-shuttle"
"/wiki/P76_pi-heptomino_hassler"
"/wiki/P8_bouncer"
"/wiki/P8_bumper"
"/wiki/P9_bouncer"
"/wiki/P9_bumper"
"/wiki/P94S"
"/wiki/P96_honey_farm_hassler"
"/wiki/Paperclip"
"/wiki/Parabolic_sawtooth"
"/wiki/Parallel_HBK"
"/wiki/Pedestle"
"/wiki/Penny_lane"
"/wiki/Pentadecathlon"
"/wiki/Pentadecathlon_on_37P7.1"
"/wiki/Pentadecathlon_on_56P27"
"/wiki/Pentadecathlon_on_snacker"
"/wiki/Pentadecathlon_on_thumb_1"
"/wiki/Pentant"
"/wiki/Pentapole"
"/wiki/Pentoad"
"/wiki/Pentoad_1H2"
"/wiki/Pentoad_2"
"/wiki/Period-117_glider_gun"
"/wiki/Period-14_glider_gun"
"/wiki/Period-144_glider_gun"
"/wiki/Period-156_glider_gun"
"/wiki/Period-184_glider_gun"
"/wiki/Period-20_glider_gun"
"/wiki/Period-22_glider_gun"
"/wiki/Period-24_glider_gun"
"/wiki/Period-246_glider_gun"
"/wiki/Period-256_glider_gun"
"/wiki/Period-28_glider_gun"
"/wiki/Period-33_glider_gun"
"/wiki/Period-36_glider_gun"
"/wiki/Period-40_glider_gun"
"/wiki/Period-435_glider_gun"
"/wiki/Period-44_glider_gun"
"/wiki/Period-44_MWSS_gun"
"/wiki/Period-45_glider_gun"
"/wiki/Period-48_glider_gun"
"/wiki/Period-50_glider_gun"
"/wiki/Period-52_glider_gun"
"/wiki/Period-59_glider_gun"
"/wiki/Period-60_glider_gun"
"/wiki/Period-61_glider_gun"
"/wiki/Period-690_glider_gun"
"/wiki/Period-808_glider_gun"
"/wiki/Period-856_glider_gun"
"/wiki/Period-88_glider_gun"
"/wiki/Period-90_glider_gun"
"/wiki/Period-92_glider_gun"
"/wiki/PF35W"
"/wiki/Phoenix_1"
"/wiki/Pi_calculator"
"/wiki/Pi_orbital"
"/wiki/Pi_portraitor"
"/wiki/Pi_ship_1"
"/wiki/Pi-heptomino"
"/wiki/Pinwheel"
"/wiki/Piston"
"/wiki/Pole_2"
"/wiki/Pole_3"
"/wiki/Pole_4"
"/wiki/Pond"
"/wiki/Pond_on_dock"
"/wiki/Pond_on_pond"
"/wiki/Pony_express"
"/wiki/Popover"
"/wiki/Pre-beehive"
"/wiki/Pre-block"
"/wiki/Pre-pre-block"
"/wiki/Pre-pulsar"
"/wiki/Pre-pulsar_spaceship"
"/wiki/Pressure_cooker"
"/wiki/Primer"
"/wiki/Professor"
"/wiki/Protein"
"/wiki/Pseudo-barberpole"
"/wiki/Pseudo-barberpole_on_Jason%27s_p22"
"/wiki/Pseudo-barberpole_on_rattlesnake"
"/wiki/PT38P"
"/wiki/PT8P"
"/wiki/PT9B"
"/wiki/Puffer_1"
"/wiki/Puffer_2"
"/wiki/Pufferfish"
"/wiki/Pufferfish_spaceship"
"/wiki/Pulsar"
"/wiki/Pulsar_Pixel_Display"
"/wiki/Pulsar_quadrant"
"/wiki/Pulshuttle_V"
"/wiki/Pushalong_1"
"/wiki/Pyrotechnecium"
"/wiki/Python_siamese_snake"
"/wiki/Quad"
"/wiki/Quad_pseudo_still_life"
"/wiki/Quadpole"
"/wiki/Quadpole_tie_ship"
"/wiki/Quadratic_sawtooth"
"/wiki/Quadri-Snark"
"/wiki/Quasar"
"/wiki/Quattuordecapole"
"/wiki/Queen_bee"
"/wiki/Queen_bee_shuttle"
"/wiki/Quindecapole"
"/wiki/R-bee_and_snake"
"/wiki/R-bee_on_beehive"
"/wiki/R-bee_with_feather"
"/wiki/R-mango_and_house"
"/wiki/R-pentomino"
"/wiki/R190"
"/wiki/R2D2"
"/wiki/R49"
"/wiki/R64"
"/wiki/Racetrack"
"/wiki/Racetrack_and_ortho-beacon"
"/wiki/Rattlesnake"
"/wiki/Raucci%27s_p217"
"/wiki/Raucci%27s_p74"
"/wiki/Rectifier"
"/wiki/Reverse_caber-tosser"
"/wiki/Revolver"
"/wiki/RF28B"
"/wiki/RF48H"
"/wiki/Rich%27s_p16"
"/wiki/Riley%27s_breeder"
"/wiki/Ring_of_fire"
"/wiki/RNE-19T84"
"/wiki/Rob%27s_p16"
"/wiki/Rotated_C"
"/wiki/Rotated_table"
"/wiki/Roteightor"
"/wiki/RRx56H"
"/wiki/Ruler"
"/wiki/Rumbling_river_1"
"/wiki/Runny_nose"
"/wiki/Rx202"
"/wiki/Sailboat"
"/wiki/Sawmill"
"/wiki/Sawtooth_1163"
"/wiki/Sawtooth_1212"
"/wiki/Sawtooth_177"
"/wiki/Sawtooth_181"
"/wiki/Sawtooth_1846"
"/wiki/Sawtooth_201"
"/wiki/Sawtooth_260"
"/wiki/Sawtooth_362"
"/wiki/Sawtooth_562"
"/wiki/Sawtooth_633"
"/wiki/Schick_engine"
"/wiki/Scholar"
"/wiki/Scorpion"
"/wiki/Scot%27s_p5"
"/wiki/Scrubber"
"/wiki/Seal"
"/wiki/Self-synthesizing_oblique_loopship"
"/wiki/Sesquihat"
"/wiki/Shield_bug"
"/wiki/Shillelagh"
"/wiki/Shillelagh_siamese_snake"
"/wiki/Ship"
"/wiki/Ship_in_a_bottle"
"/wiki/Ship_tie_snake"
"/wiki/Ship-tie"
"/wiki/Short_keys"
"/wiki/Shuriken"
"/wiki/Sidecar"
"/wiki/Sidecar_gun"
"/wiki/Sidesnagger"
"/wiki/Sidewalk"
"/wiki/Sidewinder"
"/wiki/Siesta"
"/wiki/Silver_G-to-H"
"/wiki/Silver%27s_p5"
"/wiki/Silver%27s_reflector"
"/wiki/Silverfish"
"/wiki/Simkin_glider_gun"
"/wiki/Simkin%27s_p60"
"/wiki/Sir_Robin"
"/wiki/Six_Ls"
"/wiki/Sixty-nine"
"/wiki/Skew_R-bees"
"/wiki/Skewed_quad"
"/wiki/Skewed_traffic_light"
"/wiki/Slow_puffer_1"
"/wiki/Slow_puffer_2"
"/wiki/Small_lake"
"/wiki/Smiley"
"/wiki/Snacker"
"/wiki/Snacker_on_38P7.2"
"/wiki/Snail"
"/wiki/Snake"
"/wiki/Snake_bridge_snake"
"/wiki/Snake_dance"
"/wiki/Snake_pit"
"/wiki/Snake_pit_2"
"/wiki/Snake_siamese_snake"
"/wiki/Snake_siamese_very_long_snake"
"/wiki/Snake_with_feather"
"/wiki/Snark"
"/wiki/Snorkel_loop"
"/wiki/Soba"
"/wiki/Sombreros"
"/wiki/Space_rake"
"/wiki/Spacefiller_1"
"/wiki/Spacefiller_2"
"/wiki/Spaghetti_monster"
"/wiki/Spark_coil"
"/wiki/Sparky"
"/wiki/Spartan_universal_computer-constructor"
"/wiki/Speed_Demonoid"
"/wiki/Spider"
"/wiki/Spiral"
"/wiki/Sprayer"
"/wiki/Squaredance"
"/wiki/Stairstep_hexomino"
"/wiki/Star"
"/wiki/Star_gate"
"/wiki/Statorless_p3"
"/wiki/Statorless_p5"
"/wiki/Statorless_p6"
"/wiki/Stillater"
"/wiki/Super_loaf"
"/wiki/Super_mango"
"/wiki/Super_pond"
"/wiki/Superfountain"
"/wiki/Surprise"
"/wiki/SW-2"
"/wiki/SW1T43"
"/wiki/Swan"
"/wiki/Swine"
"/wiki/Switch_engine"
"/wiki/Switch_engine_channel"
"/wiki/Switch_engine_ping-pong"
"/wiki/Switchwave"
"/wiki/Symmetric_scorpion"
"/wiki/Symmetrical_synapse"
"/wiki/Syringe"
"/wiki/T-nosed_p4"
"/wiki/T-nosed_p4_on_Merzenich%27s_p31"
"/wiki/T-nosed_p5"
"/wiki/T-nosed_p6"
"/wiki/T-nosed_p7"
"/wiki/T-tetromino"
"/wiki/Table"
"/wiki/Table_and_dock"
"/wiki/Table_and_table"
"/wiki/Tablecloth"
"/wiki/Tail"
"/wiki/Tanner%27s_p46"
"/wiki/Teardrop"
"/wiki/Teardrop_with_cape"
"/wiki/Teardrop_with_claw"
"/wiki/Technician"
"/wiki/Teeth"
"/wiki/Telegraph"
"/wiki/Test_tube_baby"
"/wiki/Thirteen_loop"
"/wiki/Thumb_1"
"/wiki/Thumb_1_on_queen_bee_shuttle"
"/wiki/Thunderbird"
"/wiki/Titanic_toroidal_traveler"
"/wiki/Tlog(log(t))_growth"
"/wiki/Tlog(t)_growth"
"/wiki/Toad"
"/wiki/Toaster"
"/wiki/Total_aperiodic"
"/wiki/Traffic_circle"
"/wiki/Traffic_jam"
"/wiki/Traffic_light"
"/wiki/Trans-barge_with_nine"
"/wiki/Trans-barge_with_tail"
"/wiki/Trans-beacon_down_on_long_hook"
"/wiki/Trans-beacon_on_cap"
"/wiki/Trans-beacon_on_dock"
"/wiki/Trans-beacon_on_table"
"/wiki/Trans-beacon_up_on_long_hook"
"/wiki/Trans-bipole_on_table"
"/wiki/Trans-block_on_long_hook"
"/wiki/Trans-block_on_long_hook_eating_tub"
"/wiki/Trans-boat_amphisbaena"
"/wiki/Trans-boat_line_tub"
"/wiki/Trans-boat_on_dock"
"/wiki/Trans-boat_on_table"
"/wiki/Trans-boat_with_nine"
"/wiki/Trans-boat_with_tail"
"/wiki/Trans-carrier_down_on_table"
"/wiki/Trans-carrier_tie_snake"
"/wiki/Trans-carrier_up_on_table"
"/wiki/Trans-carrier-tie"
"/wiki/Trans-fuse_with_two_tails"
"/wiki/Trans-hook_and_R-bee"
"/wiki/Trans-loaf_with_tail"
"/wiki/Trans-long_barge_with_tail"
"/wiki/Trans-long_boat_with_tail"
"/wiki/Trans-mango_with_tail"
"/wiki/Trans-mirrored_R-bee"
"/wiki/Trans-R-bee_and_R-loaf"
"/wiki/Trans-rotated_R-bee"
"/wiki/Trans-ship_on_table"
"/wiki/Trans-snake-tie"
"/wiki/Trans-tripole_on_table"
"/wiki/Tredecapole"
"/wiki/Tremi-Snark"
"/wiki/Tri-loaf_2"
"/wiki/Trice_tongs"
"/wiki/Triple_caterer"
"/wiki/Triple_pseudo_still_life"
"/wiki/Tripole"
"/wiki/Tripole_tie_ship"
"/wiki/Tritoad"
"/wiki/Trivial_p6-1"
"/wiki/Tub"
"/wiki/Tub_bend_line_tub"
"/wiki/Tub_test_tube_baby"
"/wiki/Tub_with_cis-tail"
"/wiki/Tub_with_long_cis-tail"
"/wiki/Tub_with_long_tail"
"/wiki/Tub_with_long%5E3_tail"
"/wiki/Tub_with_long%5E4_tail"
"/wiki/Tub_with_tail"
"/wiki/Tub_with_tail_siamese_snake"
"/wiki/Tub_with_tail_with_cape"
"/wiki/Tub_with_two_down_cis_tails"
"/wiki/Tub_with_two_down_trans_tails"
"/wiki/Tub_with_two_up_cis_tails"
"/wiki/Tub_with_two_up_trans_tails"
"/wiki/Tub_with_very_long_tail"
"/wiki/Tub-with-tail_eater"
"/wiki/Tubber"
"/wiki/Tumbler"
"/wiki/Tumbler_on_Rich%27s_p16"
"/wiki/Tumbling_T-tetson"
"/wiki/Turing_machine"
"/wiki/Turning_toads"
"/wiki/Turtle"
"/wiki/Twelve_loop"
"/wiki/Twin_bees_shuttle"
"/wiki/Twin_bees_shuttle_on_22P4.3"
"/wiki/Twin_bees_shuttle_spark"
"/wiki/Twin_bees_shuttles_hassling_blinker"
"/wiki/Twin_hat"
"/wiki/Twin_prime_calculator"
"/wiki/Twirling_T-tetsons_2"
"/wiki/Two_blockers_hassling_R-pentomino"
"/wiki/Two_cis_griddles_with_two_tubs"
"/wiki/Two_eaters"
"/wiki/Two_pre-L_hasslers"
"/wiki/Two_pulsar_quadrants"
"/wiki/Two_trans_griddles_with_two_tubs"
"/wiki/Two-glider_mess"
"/wiki/Two-glider_octomino"
"/wiki/U-turner"
"/wiki/Undecapole"
"/wiki/Unicycle"
"/wiki/Uninteresting_p24"
"/wiki/Unique_father_problem"
"/wiki/Universal_Turing_machine"
"/wiki/Unix"
"/wiki/Unix_on_34P14_shuttle"
"/wiki/Unix_on_41P7.2"
"/wiki/Unix_on_Rich%27s_p16"
"/wiki/Up_dove_on_dove"
"/wiki/Up_snake_on_table"
"/wiki/Up_wing_on_wing"
"/wiki/V_gun"
"/wiki/V_spark"
"/wiki/Vacuum_(gun)"
"/wiki/Venetian_blinds"
"/wiki/Very_long_barge"
"/wiki/Very_long_boat"
"/wiki/Very_long_canoe"
"/wiki/Very_long_cis-hook_with_tail"
"/wiki/Very_long_cis-shillelagh"
"/wiki/Very_long_claw_with_tail"
"/wiki/Very_long_clock"
"/wiki/Very_long_hook_with_tail"
"/wiki/Very_long_house"
"/wiki/Very_long_integral"
"/wiki/Very_long_melusine"
"/wiki/Very_long_prodigal"
"/wiki/Very_long_shillelagh"
"/wiki/Very_long_ship"
"/wiki/Very_long_snake"
"/wiki/Voldiag"
"/wiki/Wainwright%27s_tagalong"
"/wiki/Washerwoman"
"/wiki/Washing_machine"
"/wiki/Wasp"
"/wiki/Waterbear"
"/wiki/Wavefront"
"/wiki/Waveguide_1"
"/wiki/Weekender"
"/wiki/Weekender_distaff"
"/wiki/Why_not"
"/wiki/Wickstretcher_1"
"/wiki/Wilma"
"/wiki/Windmill"
"/wiki/Wing"
"/wiki/Wing_(spaceship)"
"/wiki/Wing_and_Blinker"
"/wiki/Worker_bee"
"/wiki/Worm"
"/wiki/X66"
"/wiki/Xp2_caabaiczw32"
"/wiki/Xs15_3lkia4z32"
"/wiki/Xs29_cc0s2ticz330fgkc"
"/wiki/Z_quad-loaf"
"/wiki/Z-hexomino"
"/wiki/Zebra_stripes"
"/wiki/Zweiback"
